<?xml version="1.0" encoding="utf-8"?>
<!-- Generator: Adobe Illustrator 20.1.0, SVG Export Plug-In . SVG Version: 6.00 Build 0)  -->
<svg version="1.1" id="Capa_1" xmlns="http://www.w3.org/2000/svg" xmlns:xlink="http://www.w3.org/1999/xlink" x="0px" y="0px"
	 viewBox="0 0 605.9 224" style="enable-background:new 0 0 605.9 224;" xml:space="preserve">
<style type="text/css">
	.st0{fill:#FFFFFF;}
</style>
<g>
	<g>
		<path class="st0" d="M436.5,109.6c0.1,0,24.4,3.8,32.4,5.4c9.1,1.8,31.6,7,35.1,11.7c3.5,4.8,6,0,9.8,5.8s12.8,14.1,16.4,13.6
			c3.5-0.5,8.6,4.3,11.3-0.8c2.8-5,11.3-4.3,9.3-11.3c0,0,5-7.5-3-9.6s4.5-14.1-18.6-14.1c0,0-3.8-0.8-6-4.5s-23.6-18.4-29.4-19.1
			c0,0,15.9-21.9,35.2-16.1c19.4,5.8,24.2,8.6,31.4,9.1c7.3,0.5,13.6,15.9,24.9,2.8c0,0,6.5-3,6.3-5.8c0,0,3.8-3.3,4.3-5.8
			s-5.8-10.8-6-15.3c-0.3-4.5,3.5-10.7-12.6-29.4c0,0,3.3-5.4,3.8-7.4s0.3-3.1-0.8-3.8S567,19.9,567,19.9s1.4-10.2-5-8.1
			s-15.1,8.3-15.1,8.3s-47-11.5-61-14.5c-13.9-3-26.7-3.4-46.1,4.7c-19.5,8.1-53,12-64.4,20.8c0,0-10.7-0.3-23.5,3.9
			c-12.7,4.2-75.8,15.2-85.9,14.9s-19.1,7.5-58.7-11.3c-39.6-18.9-35.9-10.5-91.6-25.2c-55.7-14.8-87.5,3-101,32.2
			C1.3,74.7,18.5,72,35.2,46.5c0,0,22.5-36.5,75.8-11.7s105,23.1,87.5,44.9s-21.8,44.3-35.9,47s-19.1,8.4-30.9,7
			c-11.7-1.3-13.4,6.7-15.4,13.8c-2,7-5,19.8-3.4,24.8c1.7,5-0.2,26.8,5.6,33.5c5.8,6.7,8.2,3.7,8.2,3.7s1,13.4,10.7,8.4
			c0,0,15.4,9.4,9.4-9.4c0,0,11.7,7,12.4,4.7c0.7-2.4-3.2-8.6-6-10.1s-5-8.3-11.8-9.1c0,0,1-16.4,1-20.1c0-3.8,3.8-2.8,5.8-3
			c2-0.3,8.8-4.5,8.8-4.5s52.1,3.8,69.7-13.8s44.3-47.9,58.3-40.7C362,152,394.4,109,436.5,109.6z"/>
	</g>
</g>
</svg>
